Call_Center,Policy_Paid,Email_Address,First_Name,Last_Name,State,Phone_Number,Policy_Amount,FACE_AMT,PRODUCT_PLAN,PRODUCT_DESC,Payment_Type,Policy_Number,NPS_Score,Open_End,Campaign_Id,Response_Date,Reserv_Id
TZ,13-Dec-12,FRANCINE_CLARK@YMAIL.COM,Francine,Clark,VA,7329666227,423,100000,MLI30,"30 YEAR TERM LIFE",C,212256875,5,,NPS0001,2012-12-28,4038126799
TZ,13-Dec-12,MRSJGASPARD@GMAIL.COM,Jessica,Gaspard,NY,9178730201,769,1250000,FMLI20,"20 YEAR TERM LIFE",C,212305535,6,"the metlife rep i worked with was misleading through the application process even when asked multiple times about specific parts of the process.",NPS0001,2012-12-28,4038126947
WW,18-Dec-12,FIFTYSHOOTER@HTVA.NET,Tracy,Cross,NY,6078444985,1054,500000,FMLI20,"20 YEAR TERM LIFE",A,212298322,5,,NPS0001,2012-12-31,4038127345
TZ,20-Dec-12,LOUISE_A_KORAK@HOMEDEPOT.COM,Louise,Korak,GA,6789103477,429,250000,MLI30,"30 YEAR TERM LIFE",C,212302769,3,"First of all you guys started charging me even after I said to NOT charge me until I heard what the final charge was going to be. I need to call your customer service department and complain about this.

Also why did my fee come in $12 higher than was originally quoted?

I am going to shop around for different coverage....I might as well keep yours for a month or two until I can find a different company.

I would not reccomend you to anyone else.....do you understand that you yook money out of my bank account with out my permission!!!!",NPS0001,2012-12-28,4038127376
TZ,13-Dec-12,YANNIK@VERIZON.NET,John,Kotziagkiaouridis,TX,2154398873,1329,1000000,MLI30,"30 YEAR TERM LIFE",C,212303951,5,"Two different prices when that was explained it was not done appropriately. 
Unnecessary call to ask who my partner is when I explain the type of partner that I was talking about to the first agent during the application very awkward experience. Lastly I was quotes at 119.60 but the email that was send said 120 although not a materials difference it does not show confidence. Moreover my information during the process is in separate systems and I could find my application when I called it was on the sales side the pending application side the bind policy side etc you need to have a 360 view.",NPS0001,2012-12-28,4038127383
TZ,20-Dec-12,SLOWGOING99@YAHOO.COM,Tommy,Oberholser,IA,5634523945,419,100000,MLI10,"10 YEAR TERM LIFE",C,212311643,6,,NPS0001,2012-12-28,4038127457
WW,19-Dec-12,HAIRYTATER@ATT.NET,Reubin,Bishop,FL,7723535380,1468,100000,MLI10,"10 YEAR TERM LIFE",C,212312733,4,"I wasnt happy with a higher price in the lower premium of insurance but I needed insurance",NPS0001,2012-12-28,4038127476
TZ,20-Dec-12,STH@HOEGH.COM,Stephen,Hubert,NY,5163767444,3069,2000000,FMLI30,"30 YEAR TERM LIFE",C,212315985,3,"Since when is 120/80 considered high blood pressure?",NPS0001,2012-12-29,4038127520
WW,15-Dec-12,DECPV@TEREK.COM,Paul,Terek,CA,5172560102,1069,1000000,MLI20,"20 YEAR TERM LIFE",C,212319450,6,"Im still waiting for my package with all I the plan info. Ive tried calling twice but have been on hold for 10 minutes both times. Its getting a little ridiculous.",NPS0001,2012-12-28,4038127582
